[gd_resource type="ArrayMesh" load_steps=3 format=3 uid="uid://cru4w6ns7w41s"]

[sub_resource type="StandardMaterial3D" id="StandardMaterial3D_jb4k2"]

[sub_resource type="ArrayMesh" id="ArrayMesh_k737h"]
_surfaces = [{
"aabb": AABB(-0.5, -1, -0.5, 1, 1.00001, 1),
"format": 34896613377,
"index_count": 36,
"index_data": PackedByteArray(0, 0, 6, 0, 4, 0, 0, 0, 2, 0, 6, 0, 3, 0, 6, 0, 2, 0, 3, 0, 7, 0, 6, 0, 7, 0, 4, 0, 6, 0, 7, 0, 5, 0, 4, 0, 5, 0, 3, 0, 1, 0, 5, 0, 7, 0, 3, 0, 1, 0, 2, 0, 0, 0, 1, 0, 3, 0, 2, 0, 5, 0, 0, 0, 4, 0, 5, 0, 1, 0, 0, 0),
"primitive": 3,
"uv_scale": Vector4(0, 0, 0, 0),
"vertex_count": 8,
"vertex_data": PackedByteArray(0, 0, 254, 255, 0, 0, 0, 0, 255, 255, 254, 255, 0, 0, 0, 0, 0, 0, 254, 255, 255, 255, 0, 0, 255, 255, 254, 255, 255, 255, 0, 0, 0, 0, 0, 0, 0, 0, 0, 0, 255, 255, 0, 0, 0, 0, 0, 0, 0, 0, 0, 0, 255, 255, 0, 0, 255, 255, 0, 0, 255, 255, 0, 0)
}]
blend_shape_mode = 0

[resource]
resource_name = "block_Cube"
_surfaces = [{
"aabb": AABB(-0.5, -1, -0.5, 1, 1.00001, 1),
"attribute_data": PackedByteArray(56, 192, 93, 128, 133, 255, 124, 128, 221, 191, 242, 191, 191, 191, 124, 128, 23, 128, 242, 191, 227, 255, 26, 128, 255, 255, 93, 128, 6, 192, 12, 128, 221, 191, 33, 128, 204, 255, 12, 128, 23, 128, 33, 128, 29, 192, 26, 128, 56, 192, 46, 192, 225, 191, 46, 192, 133, 255, 77, 192, 27, 128, 46, 192, 191, 191, 77, 192, 227, 255, 235, 191, 255, 255, 46, 192, 225, 191, 255, 255, 6, 192, 221, 191, 27, 128, 255, 255, 204, 255, 221, 191, 29, 192, 235, 191),
"format": 34896613399,
"index_count": 36,
"index_data": PackedByteArray(0, 0, 18, 0, 12, 0, 0, 0, 6, 0, 18, 0, 9, 0, 20, 0, 7, 0, 9, 0, 22, 0, 20, 0, 21, 0, 13, 0, 19, 0, 21, 0, 15, 0, 13, 0, 17, 0, 11, 0, 5, 0, 17, 0, 23, 0, 11, 0, 4, 0, 8, 0, 2, 0, 4, 0, 10, 0, 8, 0, 16, 0, 1, 0, 14, 0, 16, 0, 3, 0, 1, 0),
"material": SubResource("StandardMaterial3D_jb4k2"),
"primitive": 3,
"uv_scale": Vector4(2.00707, 2.00575, 0, 0),
"vertex_count": 24,
"vertex_data": PackedByteArray(0, 0, 254, 255, 0, 0, 255, 191, 0, 0, 254, 255, 0, 0, 255, 255, 0, 0, 254, 255, 0, 0, 255, 255, 255, 255, 254, 255, 0, 0, 255, 255, 255, 255, 254, 255, 0, 0, 255, 255, 255, 255, 254, 255, 0, 0, 255, 191, 0, 0, 254, 255, 255, 255, 255, 191, 0, 0, 254, 255, 255, 255, 255, 127, 0, 0, 254, 255, 255, 255, 255, 255, 255, 255, 254, 255, 255, 255, 255, 127, 255, 255, 254, 255, 255, 255, 255, 255, 255, 255, 254, 255, 255, 255, 255, 191, 0, 0, 0, 0, 0, 0, 255, 191, 0, 0, 0, 0, 0, 0, 255, 255, 0, 0, 0, 0, 0, 0, 255, 255, 255, 255, 0, 0, 0, 0, 255, 255, 255, 255, 0, 0, 0, 0, 255, 255, 255, 255, 0, 0, 0, 0, 255, 191, 0, 0, 0, 0, 255, 255, 255, 191, 0, 0, 0, 0, 255, 255, 255, 255, 0, 0, 0, 0, 255, 255, 255, 127, 255, 255, 0, 0, 255, 255, 255, 255, 255, 255, 0, 0, 255, 255, 255, 127, 255, 255, 0, 0, 255, 255, 255, 191, 255, 127, 255, 255, 255, 127, 255, 255, 255, 127, 255, 191, 255, 127, 255, 255, 255, 127, 255, 191, 255, 127, 0, 0, 255, 127, 255, 255, 255, 127, 255, 255, 255, 127, 255, 191, 255, 127, 255, 255, 255, 127, 255, 191, 255, 127, 0, 0, 255, 127, 255, 255, 255, 127, 255, 63, 255, 127, 255, 255, 255, 127, 255, 63, 255, 127, 255, 255, 255, 127, 0, 0, 255, 127, 255, 255, 255, 127, 255, 63, 255, 127, 255, 255, 255, 127, 255, 63, 255, 127, 255, 255, 255, 127, 0, 0)
}]
blend_shape_mode = 0
shadow_mesh = SubResource("ArrayMesh_k737h")
